3 Programando con R | Programación
…
En este capítulo, nos centraremos en cómo usar el paquete dplyr, otro miembro central de tidyverse. Ilustraremos las ideas clave usando datos del paquete nycflights13 y usar ggplot2 para ayudarnos a comprender los datos.

library(nycflights13)

## Warning: package 'nycflights13' was built under R version 4.0.5

3.7.1.1 nycfights13

Para explorar los verbos básicos de manipulación de datos de dplyr, usaremos nycflights13::flights. Este marco de datos contiene los 336,776 vuelos que partieron de la ciudad de Nueva York en 2013. Los datos provienen de la oficina Oficina de Estadísticas de Transporte de EE. UU, y están documentados en ?flights:

flights

## # A tibble: 336,776 x 19
##     year month   day dep_time sched_dep_time dep_delay arr_time sched_arr_time
##    <int> <int> <int>    <int>          <int>     <dbl>    <int>          <int>
##  1  2013     1     1      517            515         2      830            819
##  2  2013     1     1      533            529         4      850            830
##  3  2013     1     1      542            540         2      923            850
##  4  2013     1     1      544            545        -1     1004           1022
##  5  2013     1     1      554            600        -6      812            837
##  6  2013     1     1      554            558        -4      740            728
##  7  2013     1     1      555            600        -5      913            854
##  8  2013     1     1      557            600        -3      709            723
##  9  2013     1     1      557            600        -3      838            846
## 10  2013     1     1      558            600        -2      753            745
## # ... with 336,766 more rows, and 11 more variables: arr_delay <dbl>,
## #   carrier <chr>, flight <int>, tailnum <chr>, origin <chr>, dest <chr>,
## #   air_time <dbl>, distance <dbl>, hour <dbl>, minute <dbl>, time_hour <dttm>
…
